module gitlab.com/true10/go-module

go 1.18

require (
	github.com/json-iterator/go v1.1.12
	github.com/valyala/fasthttp v1.40.0
)

require (
	github.com/andybalholm/brotli v1.0.4 // indirect
	github.com/klauspost/compress v1.15.0 // indirect
	github.com/modern-go/concurrent v0.0.0-20180228061459-e0a39a4cb421 // indirect
	github.com/modern-go/reflect2 v1.0.2 // indirect
	github.com/valyala/bytebufferpool v1.0.0 // indirect
)
